<?xml version="1.0" encoding="UTF-8"?>
<session version="1.0">
<refactoring comment="Delete resource &apos;TCD1205_Driver/Core/Src/tcd1205.h&apos;" deleteContents="false" description="Delete resource &apos;TCD1205_Driver/Core/Src/tcd1205.h&apos;" element1="/TCD1205_Driver/Core/Src/tcd1205.h" flags="7" id="org.eclipse.ltk.core.refactoring.delete.resources" resources="1" stamp="1611598077146"/>
</session>